…
```
## [1] 17568     3
```
### Make a histogram of the total number of steps taken each day and Calculate and report the mean and median total number of steps taken per day. Do these values differ from the estimates from the first part of the assignment? What is the impact of imputing missing data on the estimates of the total daily number of steps?

```r
new.steps <- new %>%
  group_by(date) %>%
  summarize(steps = sum(steps)) %>%
  print    
```

```
## # A tibble: 61 × 2
##          date    steps
##         <chr>    <dbl>
## 1   10/1/2012 10766.19
## 2  10/10/2012  9900.00
## 3  10/11/2012 10304.00
## 4  10/12/2012 17382.00
## 5  10/13/2012 12426.00
## 6  10/14/2012 15098.00
## 7  10/15/2012 10139.00
## 8  10/16/2012 15084.00
## 9  10/17/2012 13452.00
## 10 10/18/2012 10056.00
## # ... with 51 more rows
```
…
